…
## Examples

#### `cor_index()`

`cor_index()` fucntion makes a correlation index: it gets each pair of
variables, calculate correlation between them, and turn it all to data
frame. Then the function sort data frame by absolute value of
correlation.

``` r
featr::cor_index(mtcars)
```

    ## # A tibble: 55 x 3
    ##    Var1  Var2     Cor
    ##    <chr> <chr>  <dbl>
    ##  1 cyl   disp   0.902
    ##  2 disp  wt     0.888
    ##  3 mpg   wt    -0.868
    ##  4 mpg   cyl   -0.852
    ##  5 mpg   disp  -0.848
    ##  6 cyl   hp     0.832
    ##  7 cyl   vs    -0.811
    ##  8 am    gear   0.794
    ##  9 disp  hp     0.791
    ## 10 cyl   wt     0.782
    ## # ... with 45 more rows
…
